v0;fValue
100.0;10000.0
100.0;10000.0
100.0;10000.0
100.0;10000.0
100.0;10000.0
100.0;10000.0
100.0;10000.0
100.0;10000.0
100.0;10000.0
100.0;10000.0
100.0;10000.0
100.0;10000.0
100.0;10000.0
100.0;10000.0
100.0;10000.0
100.0;10000.0
100.0;10000.0
100.0;10000.0
100.0;10000.0
100.0;10000.0
100.0;10000.0
100.0;10000.0
100.0;10000.0
100.0;10000.0
100.0;10000.0
100.0;10000.0
100.0;10000.0
100.0;10000.0
100.0;10000.0
100.0;10000.0
100.0;10000.0
100.0;10000.0
100.0;10000.0
100.0;10000.0
100.0;10000.0
100.0;10000.0
100.0;10000.0
100.0;10000.0
100.0;10000.0
100.0;10000.0
100.0;10000.0
100.0;10000.0
100.0;10000.0
100.0;10000.0
100.0;10000.0
100.0;10000.0
100.0;10000.0
100.0;10000.0
100.0;10000.0
100.0;10000.0
