v0;fValue
-45.39202906933946;0.0
64.57029878219393;0.0
-73.38571530406088;0.0
-13.995417485259836;0.0
-67.95055501087347;0.0
-56.95540065230491;0.0
-40.85909292282566;0.0
35.83565784978339;0.0
-15.369244371462386;0.0
-80.66389138053808;0.0
-98.29998547409204;0.0
-83.44723411465381;0.0
-40.78014568645758;0.0
36.683417499049455;0.0
-52.92524855583667;0.0
-6.213206933668758;0.0
55.90700392000315;0.0
-22.997263823048698;0.0
-13.040738894290953;0.0
50.927944796724034;0.0
95.18787345829219;0.0
41.27310130257206;0.0
-23.94575742716509;0.0
-58.73141811175786;0.0
-83.92973533644789;0.0
41.455926029924655;0.0
-64.90296567192354;0.0
0.6335739853988542;0.0
73.51877696739703;0.0
-71.92399265710974;0.0
91.80688644929626;0.0
4.098097567588681;0.0
-71.1529202708737;0.0
23.09907045502912;0.0
-62.953463722490554;0.0
-25.974509879160607;0.0
-91.88731365690799;0.0
-20.50132683661448;0.0
-91.92866426148672;0.0
-23.459347520157863;0.0
-58.73552676738327;0.0
46.9130552122966;0.0
1.5576504130746258;0.0
-20.312667273575897;0.0
88.73852367934342;0.0
87.05040926048696;0.0
66.17245909923048;0.0
88.90030818447272;0.0
-87.60685768452589;0.0
53.00885040552379;0.0
